Andiyagala,50112
Angamuwa,50248
Anuradhapura,50000
Awukana,50169
Bogahawewa,50566
Dematawewa ,50356
Dunumadalawa ,50214
Dutuwewa ,50393
Elayapattuwa,50014
Eppawala,50260
Etawatunuwewa,50584
Etaweeragollewa,50518
Galadivulwewa ,50210
Galenbindunuwewa,50390
Galkadawala,50006
Galkiriyagama,50120
Galkulama ,50064
Galnewa ,50170
Gambirigaswewa,50057
Ganewalpola,50142
Gemunupura ,50224
Getalawa ,50392
Gnanikulama,50036
Gonahaddenawa ,50554
Habarana,50150
Halmillawa,50124
Halmillawetiya,50552
Hidogama,50044
Horawpatana ,50350
Horiwila,50222
Hurigaswewa,50176
Hurulunikawewa ,50394
Kagama ,50282
Kahatagasdigiliya,50320
Kahatagollewa,50562
Kalakarambewa ,50288
Kalankuttiya,50174
Kalaoya ,50226
Kalawedi Ulpotha ,50556
Kallanchiya ,50454
Kapugallawa,50370
Karagahawewa,50232
Labunoruwa,50088
lhala Halmillewa,50262
lhalagama,50304
lpologama,50280
Madatugama,50130
Maha Elagamuwa,50126
Mahabulankulama,50196
Mahailluppallama,50270
Mahakanadarawa,50306
Mahapothana,50327
Mahasenpura,50574
Mahawilachchiya,50022
Mailagaswewa,50384
Malwanagama,50236
Maneruwa,50182
Maradankadawala,50080
Maradankalla ,50308
Medawachchiya,50500
Megodawewa,50334
Padavi Maithripura,50572
Padavi arakramapura,50582
Padavi Sripura ,50587
Padavi Sritissapura,50588
Padaviya ,50570
Padikaramaduwa,50338
Pahala Halmillewa,50206
Pahala Maragahawe,50220
Pahalagama,50244
Palagala,50111
Palugaswewa,50144
Pandukabayapura,50448
Pandulagama,50029
Parakumpura,50326
Parangiyawadiya,50354
Parasangahawewa,50055
Pemaduwa,50020
Perimiyankulama,50004
Pihimbiyagolewa,50512
Pubbogama,50122
Pulmoddai,50567
Punewa,50506
Rajanganaya ,50246
Rambewa,50450
Rampathwila ,50386
Ranorawa,50212
Rathmalgahawewa ,50514
Saliyapura,50008
Seeppukulama ,50380
Senapura ,50284
Sivalakulama ,50068
Siyambalewa,50184
Sravasthipura,50042
Talawa ,50230
Tambuttegama,50240
Tammennawa ,50104
Tantirimale ,50016
Telhiriyawa,50242
Tirappane,50072
Tittagonewa,50558
Udunuwara Colony ,50207
Upuldeniya ,50382
Uttimaduwa,50067
Viharapalugama,50012
Vijithapura,50110
Wahalkada ,50564
Wahamalgollewa ,50492
Walagambahuwa,50086
Walahaviddawewa ,50516