Agarapathana,22094
Ambagamuwa,20678
Ambatalawa ,20686
Ambewela,22216
Bogawantalawa,22060
Bopattalawa,22095
Dagampitiya ,20684
Dayagama Bazaar,22096
Dikoya ,22050
Doragala ,20567
Dunukedeniya,22002
Ginigathena,20680
Gonakele,22226
Haggala ,22208
Halgranoya ,22240
Hangarapitiya,22044
Hapugastalawa ,20668
Harangalagama,20669
Harasbedda,22262
Hatton,22000
Hedunuwewa,22024
Hitigegama,22046
Kalaganwatta,22282
Kandapola,22220
Labukele ,20592
Laxapana ,22034
Lindula ,22090
Madulla ,22256
Maldeniya ,22021
Maskeliya,22070
Maswela,20566
Padiyapelella,20750
Patana ,22012
Pitawala,20682
Pundaluoya,22120
Ramboda,20590
Rozella,22008
Rupaha ,22245
Ruwaneliya ,22212
Santhipura ,22202
Talawakele ,22100
Teripeha,22287
Udamadura ,22285
Udapussallawa ,22250
Walapane,22270
Watagoda ,22110
Watawala,22010