Alutwewa,51014
Aralaganwila ,51100
Aselapura,51072
Attanakadawala,51235
Bakamuna,51250
Dalukana ,51092
Damminna ,51106
Dewagala ,51094
Dimbulagala,51031
Divulankadawala,51428
Divuldamana,51104
Diyabeduma ,51225
Diyasenpura ,51504
Elahera,51258
Ellewewa ,51034
Galamuna ,51416
Galoya Junction,51375
Giritale ,51026
Hansayapalama,51098
Hingurakdamana,51408
Hingurakgoda ,51400
Jayanthipura ,51024
Jayasiripura ,51246
Kalingaela ,51002
Kalukele Badanagala,51037
Lakshauyana ,51006
Maduruoya,51108
MahaAmbagaswewa,51518
Mahatalakolawewa ,51506
Mahawela Sinhapura,51076
Mampitiya,51090
Medirigiriya,51500
Meegaswewa,51508
Onegama ,51004
Palugasdamana ,51046
Parakramasamudraya,51016
Pelatiyawa,51033
Pimburattewa,51102
Polonnaruwa ,51000
Pulastigama,51050
Sevanapitiya,51062
Sinhagama,51378
Sungavila,51052
Talpotha,51044
Tamankaduwa,51089
Tambala ,51049
Unagalavehera ,51008
Yodaela,51422
Yudaganawa,51424