﻿අක්‌කරපත්තුව  ,AKKARAIPATTU,
අඩලෙචෙනෙයි  ,ADDALACHCHENEI,
අලයාදිවෙම්බු  ,ALAYADIWEMBU,
අම්පාර,AMPARA,
උහන ,UHANA,
කරතිව්  ,KARATIVU,
කල්මුණේ  ,KALMUNAI(MUSLIM),
තිරුකෝවිල්  ,THIRUKKOVIL,
දමන  ,DAMANA,
දෙහිඅත්තකණ්‌ඩිය  ,DEHIATTAKANDIYA,
නාවන්දවේලි  ,NAVITHANVELI,
නිත්තවූර්  ,NINTHAVUR,
පදියතලාව  ,PADIYATHALAWA,
පොතුවිල්  ,POTHUVIL,
මහඔය  ,MAHAOYA,
ලාහුගල  ,LAHUGALA,
සමන්තුරේ  ,SAMANTHURAI,
සෙයින්දමරුතු  ,SAINTHAMARATHU