﻿ගලෙන්බිදුණුවැව  ,GALENBINDUNUWEWA,
ගල්නෑව  ,GALNEWA,
හොරොව්පතාන  ,HOROWPATHANA,
ඉපලෝගම  ,IPALOGAMA,
කහටගස්‌දිගිලිය  ,KAHATAGASDIGILIYA,
කැබිතිගොල්ලෑව  ,KEBITHIGOLLEWA,
කැකිරාව  ,KEKIRAWA,
මහවිලච්චිය  ,MAHAVILACHCHIYA,
මැදවච්චිය  ,MEDAWACHCHIYA,
මිහින්තලේ  ,MIHINTHALE,
නාච්චදූව  ,NACHCHADUWA,
නොච්චියාගම  ,NOCHCHIYAGAMA,
නුවරගම් පළාත  ,NUWARAGAMPALATHA CENTRAL,
නුවරගම් පළාත නැගෙනහිර  ,NUWARAGAMPALATHA EAST,
පදවිය  ,PADAVIYA,
පලගල  ,PALAGALA,
පලුගස්‌වැව  ,PALUGASWEWA,
රාජාංගනය  ,RAJANGANAYA,
රඹෑව ,RAMBEWA,
තලාව  ,THALAWA,
තඹුත්තේගම  ,THAMBUTTEGAMA,
තිරප්පනේ ,THIRAPPANE