﻿එරාවූර් නගරය  ,Erawur town,
එරාවුර්පත්තු  ,Erawur paththu,
කාත්තන්කුඩි  ,Kathankudi,
කොරාලයි පත්තු  ,Koraley paththu,
කොරලයිපත්තු මධ්‍යම   ,Koraley paththu central,
කොරාලයි පත්තු දකුණ  ,koraley paththu south ,
කෝරළේපත්තුව බටහිර  ,koraley paththu west,
මන්මුනයි දකුණ  ,Manmuney south,
මන්මුනයි දකුණ-බටහිර  ,manmuney south - west,
මන්මුනයි බටහිර  ,manmuney west,
පොරතිව්පත්තු ,porathiv paththu