﻿කොළඹ ,colombo
හංවැල්ල ,hanwella
හෝමාගම ප්‍රාදේශීය මහ ලේකම් කොට්ඨාශය,Homagama
මහරගම ,maharagama
කඩුවෙල ,kaduwela
කොළොන්නාව ,kolonnawa
කැස්බෑව ,kesbewa
තිඹිරිගස්යාය ,thimbirigasyaya
දෙහිවල ,dehiwala
මොරටුව ,moratuwa
පාදුක්‌ක ,padukka
රත්මලාන ,rathmalana
ශ්‍රී ජයවර්ධනපුර ‍කෝට්ටේ ,sri jayawardenepura kotte